Lab 10
…
Comments

The graph representing timeliness of answer and score of that answer shows a very strong trend towards shorter response times receiving higher scores. Other than 3 outlier scores, there are no scores over 500 with response times that are very far from 0 hours on the graph. On the other hand, there are many scores well over 500 with response times that are less than an hour. For the score of the question graph, this same trend seems to hold, but with greater variation in the scores. I believe this trend is so strong in the graph comparing scores of the answer because people nowadays want answers faster, therefore the quicker someone can receive an answer the higher they will tend to score that answer. The outliers could also come from much more complex answers that were extremely well thought out, but took much more time to post, therefore they receive these extremely high scores based on quality, and not response time.

Erins Findings

## # A tibble: 10,000 x 7
##       Id OwnerUserId CreationDate        Score Title       Body       X7   
##    <dbl>       <dbl> <dttm>              <dbl> <chr>       <chr>      <lgl>
##  1   469         147 2008-08-02 15:11:16    21 How can I ~ "<p>I am ~ NA   
##  2   502         147 2008-08-02 17:01:58    27 Get a prev~ "<p>I hav~ NA   
##  3   535         154 2008-08-02 18:43:54    40 Continuous~ "<p>I'm s~ NA   
##  4   594         116 2008-08-03 01:15:08    25 cx_Oracle:~ "<p>There~ NA   
##  5   683         199 2008-08-03 13:19:16    28 Using 'in'~ "<p>I don~ NA   
##  6   742         189 2008-08-03 15:55:28    30 Class view~ "<p><a hr~ NA   
##  7   766     1384652 2008-08-03 17:44:07    20 Python and~ "<p>I can~ NA   
##  8   773         207 2008-08-03 18:27:09   256 How do I u~ "<p>I hav~ NA   
##  9   972         145 2008-08-04 02:17:51   364 Adding a M~ "<p>I've ~ NA   
## 10  1476          92 2008-08-04 18:20:36   251 How do you~ "<p>How d~ NA   
## # ... with 9,990 more rows
…
